<?xml version="1.0" encoding="UTF-8"?>
<svg width="103px" height="103px" viewBox="0 0 103 103" version="1.1" xmlns="http://www.w3.org/2000/svg" xmlns:xlink="http://www.w3.org/1999/xlink">
    <!-- Generator: Sketch 43.2 (39069) - http://www.bohemiancoding.com/sketch -->
    <title>community</title>
    <desc>Created with Sketch.</desc>
    <defs>
        <linearGradient x1="2.05472548%" y1="50%" x2="102.350624%" y2="50%" id="linearGradient-1">
            <stop stop-color="#E1E1E1" offset="0%"></stop>
            <stop stop-color="#AEB6BC" offset="100%"></stop>
        </linearGradient>
    </defs>
    <g id="Order" stroke="none" stroke-width="1" fill="none" fill-rule="evenodd">
        <g id="community" transform="translate(1.000000, 1.000000)">
            <polygon id="Stroke-8" stroke="url(#linearGradient-1)" stroke-width="1.19750403" fill="#000000" points="30.2906501 100 1 70.7092698 1 29.2906501 30.2906501 0 71.7091897 0 101 29.2906501 101 70.7092698 71.7091897 100"></polygon>
            <g id="RedDeSeguridad">
                <polygon id="Fill-1" fill="#FEFEFE" points="0.360941587 71.2524359 99.8270584 71.2524359 99.8270584 28.0874316 0.360941587 28.0874316"></polygon>
                <polygon id="Fill-2" fill="#ED1C24" points="100.869698 29.5748718 100.869698 29.5861011 0.0530985179 29.5861011 0.0530985179 29.5748718 29.5813287 0.0466416739 71.3406661 0.0466416739"></polygon>
                <polygon id="Fill-3" fill="#ED1C24" points="100.869698 71.2524199 100.869698 71.3342333 71.3406661 100.862463 29.5813287 100.862463 0.0530985179 71.3342333 0.0530985179 71.2524199"></polygon>
                <g id="Group-28" transform="translate(0.320837, 0.356931)">
                    <polygon id="Stroke-4" stroke="#FEFEFE" stroke-width="1.19750403" points="99.5062214 30.1806441 99.5062214 30.191713 0.494169137 30.191713 0.494169137 30.1806441 29.4939006 1.18099285 70.5056879 1.18099285"></polygon>
                    <polygon id="Stroke-6" stroke="#FEFEFE" stroke-width="1.19750403" points="99.5062214 69.9275798 99.5062214 69.9165109 0.494169137 69.9165109 0.494169137 69.9275798 29.4939006 98.9273112 70.5056879 98.9273112"></polygon>
                    <polygon id="Stroke-8" stroke="#ED1C24" stroke-width="1.19750403" points="29.3710361 100.141238 0.0401206626 70.8102424 0.0401206626 29.3346853 29.3710361 0.00376983435 70.846513 0.00376983435 100.177589 29.3346853 100.177589 70.8102424 70.846513 100.141238"></polygon>
                    <path d="M74.7103686,34.3718176 C72.7891167,33.9006685 70.5675613,33.3171463 68.5857514,32.4978891 L65.9590591,33.6995037 L65.9590591,33.198597 C65.9590591,32.3929754 65.3061559,31.7394305 64.4998926,31.7394305 C63.694672,31.7394305 63.0412875,32.3924139 63.0412875,33.198597 L63.0412875,33.6989423 L60.4140338,32.4978891 C58.4316624,33.3171463 56.2113904,33.9006685 54.2892561,34.3718176 C53.5099432,34.5638385 53.3849772,34.7934776 53.3849772,34.9672108 C53.3849772,35.2738507 54.3178908,35.2738507 54.3178908,35.274332 L63.0417688,35.274332 L63.0417688,36.5848708 L62.847101,36.5848708 L54.0090051,36.5848708 L46.2092178,36.5848708 L37.3712823,36.5848708 L37.1764541,36.5848708 L37.1764541,35.274332 L45.8997705,35.274332 C45.8997705,35.2738507 46.8335665,35.2738507 46.8335665,34.9672108 C46.8335665,34.7934776 46.7082797,34.5638385 45.9287261,34.3718176 C44.0069929,33.9006685 41.7859187,33.3171463 39.804189,32.4978891 L37.1770155,33.6989423 L37.1770155,33.198597 C37.1770155,32.3929754 36.5240321,31.7394305 35.7184105,31.7394305 C34.9126284,31.7394305 34.2591637,32.3924139 34.2591637,33.198597 L34.2591637,33.6995037 L31.6318298,32.4978891 C29.6495386,33.3172265 27.4295874,33.9006685 25.507774,34.3718176 C24.7277391,34.5638385 24.6030138,34.7934776 24.6030138,34.9672108 C24.6030138,35.2738507 25.5358473,35.2738507 25.5358473,35.274332 L34.2597252,35.274332 L34.2597252,36.8800408 C34.2597252,37.6059344 34.7918333,38.2030922 35.4863651,38.3157862 C35.54572,38.3278978 35.6060373,38.3347156 35.6689214,38.3347156 L35.6812736,38.3347156 C35.693305,38.3358385 35.7052561,38.3392073 35.7176886,38.3392073 C35.72972,38.3392073 35.7415909,38.3358385 35.754264,38.3347156 L37.3707208,38.3347156 L44.7847819,38.3347156 L44.7847819,40.1175264 C40.4550068,42.1328638 37.444754,46.5247208 37.444754,51.6074201 C37.444754,52.0916432 37.8368167,52.4831446 38.319917,52.4831446 C38.8030975,52.4831446 39.1951602,52.0910818 39.1951602,51.6074201 C39.1951602,47.4272352 41.5569214,43.7903076 45.0138595,41.957366 C45.2672405,42.3493486 45.7066267,42.609788 46.2086563,42.609788 L54.0085238,42.609788 C54.5103128,42.609788 54.9492178,42.3493486 55.2033207,41.9568045 C58.6601786,43.7903076 61.0224209,47.4272352 61.0224209,51.6074201 C61.0224209,52.0916432 61.4140024,52.4831446 61.8971027,52.4831446 C62.380203,52.4831446 62.7722657,52.0910818 62.7722657,51.6074201 C62.7722657,46.5247208 59.7622535,42.1334253 55.4323983,40.1175264 L55.4323983,38.3347156 L62.847101,38.3347156 L64.4638786,38.3347156 C64.47591,38.3358385 64.4878612,38.3392073 64.4998926,38.3392073 C64.5122448,38.3392073 64.5244366,38.3358385 64.5362274,38.3347156 L64.5488202,38.3347156 C64.6110626,38.3347156 64.6725029,38.3278978 64.7312963,38.3157862 C65.4256677,38.2036537 65.9579362,37.6065761 65.9579362,36.8800408 L65.9579362,35.274332 L74.6819745,35.274332 C74.6819745,35.2738507 75.6146476,35.2738507 75.6146476,34.9672108 C75.6151289,34.7934776 75.4910452,34.5638385 74.7103686,34.3718176" id="Fill-10" fill="#221F20"></path>
                    <path d="M49.9604917,51.3073573 C48.5116722,51.3073573 47.3360453,50.1325325 47.3360453,48.6825901 C47.3360453,47.2335299 48.5116722,46.0586249 49.9604917,46.0586249 C51.4100331,46.0586249 52.5846173,47.2335299 52.5846173,48.6825901 C52.5846173,50.1325325 51.4100331,51.3073573 49.9604917,51.3073573 M50.0048474,44.7060565 C47.0347794,44.7060565 44.4286207,46.258747 42.9477175,48.5941193 C44.4286207,50.9302936 47.0347794,52.4825029 50.0048474,52.4825029 C52.9748352,52.4825029 55.5811543,50.9298124 57.0618971,48.5941193 C55.5811543,46.258747 52.9748352,44.7060565 50.0048474,44.7060565" id="Fill-12" fill="#221F20"></path>
                    <path d="M50.7365824,15.6065447 C51.1905667,13.9616136 52.3258483,13.0942309 53.6878814,13.0942309 C55.0506364,13.0942309 56.1645022,14.0058891 56.5158989,15.6065447 L50.7365824,15.6065447 Z M40.7693008,15.6081489 C41.1207777,14.0074131 42.236007,13.0955142 43.599163,13.0955142 C44.9624795,13.0955142 46.0982424,13.9632178 46.5522267,15.6081489 L40.7693008,15.6081489 Z M68.5762406,11.0501786 C67.0159303,11.0501786 65.8836966,11.8283686 65.4776774,12.9626075 L65.4352467,12.9626075 C65.0292276,11.8283686 63.896272,11.0501786 62.3354804,11.0501786 C60.4596269,11.0501786 58.8221552,12.3986563 58.5840139,14.7608987 C57.8827446,12.7061786 56.0717001,11.0486546 53.399449,11.0486546 C51.7843557,11.0486546 49.5643243,12.1564244 48.6448858,14.6082605 C47.7241639,12.1575473 45.5035711,11.0501786 43.8877559,11.0501786 C40.3977716,11.0501786 38.373531,13.8737043 38.373531,16.7193677 C38.373531,18.7307749 36.9073862,19.9499554 35.6190654,19.9499554 C34.3110933,19.9499554 33.2545772,18.6334811 33.2545772,17.0787051 L33.2545772,14.3387575 L36.3079024,14.3387575 L36.3079024,11.928951 L33.2545772,11.928951 L33.2545772,8.98198326 L30.5638779,8.98198326 L30.5638779,11.928951 L27.4193548,11.928951 L27.4193548,14.3387575 L30.5638779,14.3387575 L30.5638779,17.105495 C30.5638779,20.403298 32.99117,22.3903215 35.4388352,22.3903215 C37.1608474,22.3903215 39.0062214,21.4720059 39.5878187,20.2895613 C40.5289939,21.5078595 41.991449,22.3907226 43.8877559,22.3907226 C45.6850846,22.3679432 47.337796,21.389631 48.5354804,19.7662762 L46.7177786,18.6763128 C45.9741587,19.7442187 44.9830933,20.3449859 43.8258344,20.3449859 C42.3190235,20.3449859 40.8939459,19.1662309 40.7693008,17.5214602 L49.0717594,17.5214602 L49.0717594,17.519856 L56.5162999,17.519856 C56.3915745,19.1646267 54.9674595,20.3432213 53.4609695,20.3432213 C52.3054752,20.3432213 51.3143296,19.7426947 50.5715118,18.6747888 L48.7548527,19.764672 C49.9518954,21.3881071 51.6037245,22.3664994 53.399449,22.3891184 C56.0330392,22.3891184 57.8299669,20.7789179 58.5530532,18.7653451 L58.5530532,22.3907226 L60.7761325,22.3907226 L60.7761325,15.3859693 C60.7761325,14.0962849 61.5669956,13.3630922 62.4858727,13.3630922 C63.5538588,13.3630922 64.3454438,14.0297915 64.3454438,15.697502 L64.3454438,22.3907226 L66.5683627,22.3907226 L66.5683627,15.697502 C66.5683627,14.0297915 67.3583435,13.3630922 68.4272119,13.3630922 C69.3459285,13.3630922 70.1367916,14.0962849 70.1367916,15.3859693 L70.1367916,22.3907226 L72.3595501,22.3907226 L72.3595501,15.3635909 C72.3593897,12.6287766 70.6065772,11.0501786 68.5762406,11.0501786 L68.5762406,11.0501786 Z" id="Fill-14" fill="#FEFEFE"></path>
                    <path d="M25.9772949,58.2453043 L18.7031187,53.8807184 C18.4215041,55.2887916 17.2014413,56.3210846 15.6995233,56.3210846 C15.5119139,56.3210846 15.2772216,56.2741622 15.0894518,56.2271595 C14.9486846,56.5556966 14.4794605,57.4944656 13.3060795,58.4799163 C11.8043219,59.7939041 9.83334019,59.6531369 9.83334019,59.6531369 L4.71799582,59.6531369 L4.71799582,61.0611299 L4.01407951,61.0611299 L4.01407951,65.2847881 L0.494177158,65.2847881 L0.494177158,52.5666504 L4.01407951,52.5666504 L4.01407951,56.7903086 L4.71799582,56.7903086 L4.71799582,57.4944656 L9.73949538,57.4944656 C9.927185,57.4944656 10.8658738,57.4004603 11.8513245,56.5556966 C12.789933,55.7579355 12.9307003,54.8663296 12.9307003,54.5846347 C12.696008,54.2092554 12.6023236,53.7399512 12.6023236,53.2706469 C12.6023236,52.3319582 13.0715477,51.4872746 13.7285416,50.9242058 L6.07890602,46.3719303 L7.15836199,44.4008684 L24.8040743,55.0070166 L29.4032722,52.5196478 L25.9772949,58.2453043 Z" id="Fill-16" fill="#020302"></path>
                    <polygon id="Fill-18" fill="#020302" points="31.0927515 58.7144963 29.2624568 57.6819627 29.0278448 58.1044248 27.7137768 57.3535861 31.374286 50.783246 32.688354 51.5342452 32.4068195 52.0034692 34.2840366 53.0360028"></polygon>
                    <path d="M24.6163285,53.5053632 L6.59515676,42.5705175 L9.92720907,37.4551731 C9.92720907,37.4551731 10.3025883,36.7043344 11.6635787,36.563487 C12.6491899,36.4227198 13.4938734,36.8919439 13.4938734,36.8919439 L14.3385569,37.4082507 L12.5083425,40.317841 L13.681563,41.0688401 L15.5119379,38.1120868 L16.4504663,38.6752359 L14.5733294,41.6788314 L15.74655,42.4296701 L17.6706895,39.3793126 L18.6561402,39.9424617 L16.7790033,43.0867442 L17.9053817,43.8376631 L19.8763634,40.6933004 L33.4861071,48.7653179 L24.6163285,53.5053632 Z" id="Fill-20" fill="#020302"></path>
                    <path d="M70.6771913,52.5196638 L75.2764694,55.0070326 L92.9221015,44.4008042 L94.0015575,46.3719463 L86.3520021,50.9242218 C87.008996,51.4872105 87.4782201,52.331894 87.4782201,53.2706629 C87.4782201,53.7399672 87.3844554,54.2091913 87.1498434,54.5846507 C87.1498434,54.8663456 87.2905304,55.7578713 88.2292192,56.5555522 C89.2145897,57.4004764 90.1532785,57.4944014 90.3409681,57.4944014 L95.3625479,57.4944014 L95.3625479,56.7902445 L96.066384,56.7902445 L96.066384,52.5666664 L99.5863665,52.5666664 L99.5863665,65.284724 L96.066384,65.284724 L96.066384,61.0610657 L95.3625479,61.0610657 L95.3625479,59.6530727 L90.2471233,59.6530727 C90.2471233,59.6530727 88.2762218,59.7938399 86.774384,58.4798521 C85.6010832,57.4944014 85.1317789,56.5555522 84.9910117,56.2270954 C84.8032418,56.274098 84.5685496,56.3211006 84.3809402,56.3211006 C82.8790221,56.3211006 81.6589594,55.2886473 81.3774249,53.8807344 L74.1031686,58.2453203 L70.6771913,52.5196638 Z" id="Fill-22" fill="#020302"></path>
                    <polygon id="Fill-24" fill="#020302" points="65.796483 53.0359306 67.6737001 52.003397 67.3921656 51.534173 68.7061534 50.7832541 72.3667428 57.3535941 71.0526748 58.1042724 70.8179826 57.6819707 68.9877681 58.7145043"></polygon>
                    <path d="M66.5943484,48.7653018 L80.2041723,40.6932844 L82.175154,43.8376471 L83.3015323,43.0867282 L81.4243153,39.9424457 L82.4098462,39.3792966 L84.3339857,42.4296541 L85.5072063,41.6788153 L83.6300694,38.6753001 L84.5685977,38.112151 L86.3989726,41.0688241 L87.572113,40.3179051 L85.7419787,37.4082347 L86.5866622,36.8919278 C86.5866622,36.8919278 87.4313458,36.4227037 88.4168767,36.563471 C89.7778671,36.7043184 90.1533266,37.4551571 90.1533266,37.4551571 L93.4853789,42.5705015 L75.4642071,53.505267 L66.5943484,48.7653018 Z" id="Fill-26" fill="#020302"></path>
                </g>
                <text id="RED-DE-SEGURIDAD" font-family="FolioStd-Bold, Folio Std" font-size="5.94076159" font-weight="bold" fill="#FEFEFE">
                    <tspan x="17.5483871" y="81.8709677">RED DE SEGURIDAD</tspan>
                </text>
            </g>
        </g>
    </g>
</svg>