<?xml version="1.0" encoding="UTF-8"?>
<svg width="118px" height="118px" viewBox="0 0 118 118" version="1.1" xmlns="http://www.w3.org/2000/svg" xmlns:xlink="http://www.w3.org/1999/xlink">
    <!-- Generator: Sketch 40.1 (33804) - http://www.bohemiancoding.com/sketch -->
    <title>Construction</title>
    <desc>Created with Sketch.</desc>
    <defs></defs>
    <g id="Page-1" stroke="none" stroke-width="1" fill="none" fill-rule="evenodd">
        <g id="Construction" transform="translate(4.000000, 4.000000)">
            <path d="M110,55 C110,85.376 85.376,110 55,110 C24.624,110 0,85.376 0,55 C0,24.624 24.624,0 55,0 C85.376,0 110,24.624 110,55" id="Fill-915" stroke="#FFFFFF" stroke-width="7" fill="#E04F5F"></path>
            <g id="Group" transform="translate(23.000000, 23.000000)">
                <path d="M60,32 C60,16.536 47.464,4 32,4 C16.536,4 4,16.536 4,32 L4,45 C22.667,50.333 41.333,50.333 60,45 L60,32 Z" id="Fill-3752" fill="#FACB1B"></path>
                <path d="M4,32 L4,45 C13.333,47.667 22.667,49 32,49 L32,4 C16.536,4 4,16.536 4,32" id="Fill-3753" fill="#FBE158"></path>
                <path d="M62,40 L60,40 L60,45 C53.319,46.909 46.638,48.122 39.958,48.665 L38.198,37.779 C38.088,36.795 37.329,36 36,36 L36,2.426 C36,2.146 35.883,1.879 35.677,1.69 C33.226,-0.563 30.774,-0.563 28.323,1.69 C28.117,1.879 28,2.146 28,2.426 L28,36 C26.671,36 25.912,36.795 25.802,37.779 L24.042,48.665 C17.362,48.122 10.681,46.909 4,45 L4,40 L2,40 C0.896,40 0,40.896 0,42 L0,47.375 C0,48.482 0.459,49.54 1.267,50.296 C4.583,53.399 14.491,61 32,61 C49.509,61 59.417,53.399 62.733,50.296 C63.541,49.54 64,48.482 64,47.375 L64,42 C64,40.896 63.104,40 62,40" id="Fill-3754" fill="#F3B606"></path>
                <path d="M9.1287,14.5865 C9.0287,14.4085 8.9847,14.2035 9.0047,13.9995 C9.2597,11.3895 13.4107,7.5465 15.8747,7.5555 C16.3047,7.5565 16.6837,7.8325 16.8197,8.2395 L23.8587,29.3565 C24.7387,31.7295 21.2657,33.1955 20.1307,31.0025 L9.1287,14.5865 Z" id="Fill-3755" fill="#F3B606"></path>
                <path d="M54.8713,14.5865 C54.9713,14.4085 55.0153,14.2035 54.9953,13.9995 C54.7403,11.3895 50.5893,7.5465 48.1253,7.5555 C47.6953,7.5565 47.3163,7.8325 47.1803,8.2395 L40.1413,29.3565 C39.2613,31.7295 42.7343,33.1955 43.8693,31.0025 L54.8713,14.5865 Z" id="Fill-3756" fill="#F3B606"></path>
                <path d="M28.3232,1.6897 C28.1172,1.8787 28.0002,2.1467 28.0002,2.4267 L28.0002,35.9997 C26.6712,35.9997 25.9112,36.7947 25.8022,37.7787 L24.0422,48.6647 C17.3622,48.1217 10.6802,46.9087 4.0002,44.9997 L4.0002,39.9997 L2.0002,39.9997 C0.8952,39.9997 0.0002,40.8957 0.0002,41.9997 L0.0002,47.3747 C0.0002,48.4817 0.4592,49.5397 1.2672,50.2957 C4.5832,53.3997 14.4912,60.9997 32.0002,60.9997 L32.0002,-0.0003 C30.7742,-0.0003 29.5492,0.5637 28.3232,1.6897" id="Fill-3757" fill="#F3B606"></path>
            </g>
        </g>
    </g>
</svg>