<?xml version="1.0" encoding="UTF-8"?>
<svg width="63px" height="80px" viewBox="0 0 63 80" version="1.1" xmlns="http://www.w3.org/2000/svg" xmlns:xlink="http://www.w3.org/1999/xlink">
    <!-- Generator: Sketch 43.2 (39069) - http://www.bohemiancoding.com/sketch -->
    <title>enterprise</title>
    <desc>Created with Sketch.</desc>
    <defs></defs>
    <g id="-RC1" stroke="none" stroke-width="1" fill="none" fill-rule="evenodd">
        <g id="SecurityNetCreateSlide1" transform="translate(-281.000000, -284.000000)">
            <g id="enterprise" transform="translate(281.000000, 284.000000)">
                <path d="M55.666422,40.675 C55.452222,40.2625 55.023822,40 54.557622,40 L8.468082,40 C8.000622,40 7.559622,40.2625 7.345422,40.6875 C7.131222,41.1 7.169022,41.6125 7.458822,41.9875 C11.352222,47.275 19.178082,49.25 26.472222,49.8 L26.472222,54.06125 C29.832642,53.645 33.193062,53.64625 36.552222,54.06375 L36.552222,49.8125 C48.119022,48.95 53.360622,45.125 55.590822,41.9625 C55.855422,41.5875 55.893222,41.0875 55.666422,40.675" id="Fill-6437" fill="#3E3E3F"></path>
                <path d="M18.9,40 L18.9,35 C18.9,29.3125 11.34,26.25 11.34,15 C11.34,3.75 18.9,0 31.5,0 C44.1,0 51.66,3.75 51.66,15 C51.66,26.25 44.1,28.75 44.1,35 L44.1,40" id="Fill-6438" fill="#3E3E3F"></path>
                <path d="M11.34,15 C11.34,26.25 18.9,29.3125 18.9,35 L18.9,40 L31.5,40 L31.5,0 C18.9,0 11.34,3.75 11.34,15" id="Fill-6439" fill="#5B5C5F"></path>
                <path d="M47.246976,74.187 C47.923596,73.172 49.081536,72.4995 50.399496,72.4995 C50.480136,72.4995 50.555736,72.51825 50.635116,72.52325 L49.047516,69.3745 L13.952736,69.3745 L12.365136,72.52325 C12.444516,72.51825 12.518856,72.4995 12.599496,72.4995 C13.918716,72.4995 15.076656,73.172 15.753276,74.187 L16.287516,73.1245 L46.712736,73.1245 L47.246976,74.187 Z" id="Fill-6440" fill="#E2E4E5"></path>
                <path d="M34.02,61.171875 C32.34042,61.275625 30.65958,61.275625 28.98,61.171875 L28.98,67.499375 L34.02,67.499375 L34.02,61.171875 Z" id="Fill-6441" fill="#3E3E3F"></path>
                <path d="M35.28,73.75 C35.28,74.44 34.71552,75 34.02,75 L28.98,75 C28.28448,75 27.72,74.44 27.72,73.75 L27.72,68.75 C27.72,68.06 28.28448,67.5 28.98,67.5 L34.02,67.5 C34.71552,67.5 35.28,68.06 35.28,68.75 L35.28,73.75 Z" id="Fill-6442" fill="#CFD3D4"></path>
                <path d="M11.352348,40 C11.352348,40 12.612348,46.25 31.512348,46.25 C50.412348,46.25 51.672348,40 51.672348,40 L11.352348,40 Z" id="Fill-6443" fill="#5B5C5F"></path>
                <path d="M21.42,56.25 L21.42,58.75 L17.4132,58.75 C17.5644,58.3625 17.64,57.9375 17.64,57.5 C17.64,57.0625 17.5644,56.6375 17.4132,56.25 L21.42,56.25 Z" id="Fill-6444" fill="#E2E4E5"></path>
                <path d="M17.64,57.5 C17.64,57.9375 17.5644,58.3625 17.4132,58.75 C16.9092,60.2125 15.5106,61.25 13.86,61.25 C11.7684,61.25 10.08,59.575 10.08,57.5 C10.08,55.425 11.7684,53.75 13.86,53.75 C15.5106,53.75 16.9092,54.7875 17.4132,56.25 C17.5644,56.6375 17.64,57.0625 17.64,57.5" id="Fill-6445" fill="#3E3E3F"></path>
                <path d="M23.94,40 L23.94,36.94375 C23.94,25 16.38,22.5 16.38,15 C16.38,7.5 23.94,5 31.5,5 C39.06,5 46.62,7.5 46.62,15 C46.62,22.5 39.06,25 39.06,36.94375 L39.06,40 L23.94,40 Z" id="Fill-6446" fill="#5B5C5F"></path>
                <path d="M16.38,76.25 C16.38,78.32125 14.68782,80 12.6,80 C10.51218,80 8.82,78.32125 8.82,76.25 C8.82,74.17875 10.51218,72.5 12.6,72.5 C14.68782,72.5 16.38,74.17875 16.38,76.25" id="Fill-6447" fill="#3E3E3F"></path>
                <path d="M21.42,55 C28.13958,53.33375 34.86042,53.33375 41.58,55 L41.58,60 C34.86042,61.66625 28.13958,61.66625 21.42,60 L21.42,55 Z" id="Fill-6448" fill="#CFD3D4"></path>
                <path d="M31.5,67.5 L28.98,67.5 C28.28448,67.5 27.72,68.06 27.72,68.75 L27.72,73.75 C27.72,74.44 28.28448,75 28.98,75 L31.5,75 L31.5,67.5 Z" id="Fill-6449" fill="#FFFFFF"></path>
                <path d="M21.42,55 L21.42,60 C24.78042,60.83375 28.13958,61.25 31.5,61.25 L31.5,53.75 C28.13958,53.75 24.78042,54.16625 21.42,55" id="Fill-6450" fill="#FFFFFF"></path>
                <path d="M54.18,76.25 C54.18,78.32125 52.48782,80 50.4,80 C48.31218,80 46.62,78.32125 46.62,76.25 C46.62,74.17875 48.31218,72.5 50.4,72.5 C52.48782,72.5 54.18,74.17875 54.18,76.25" id="Fill-6451" fill="#3E3E3F"></path>
                <path d="M63,30 L51.66,30 C51.66,27.34875 53.84736,25.17875 56.51982,25.17875 L58.14018,25.17875 C60.81264,25.17875 63,27.34875 63,30" id="Fill-6452" fill="#3E3E3F"></path>
                <polygon id="Fill-6453" fill="#FFFFFF" points="53.235 32.5 50.4 40 54.18 40 57.015 32.5"></polygon>
                <polygon id="Fill-6454" fill="#E2E4E5" points="57.054312 32.5 53.194932 32.5 52.920252 30 61.740252 30"></polygon>
                <path d="M0,30 L11.34,30 C11.34,27.34875 9.15264,25.17875 6.48018,25.17875 L4.85982,25.17875 C2.18736,25.17875 0,27.34875 0,30" id="Fill-6455" fill="#3E3E3F"></path>
                <polygon id="Fill-6456" fill="#FFFFFF" points="9.765 32.5 5.985 32.5 8.82 40 12.6 40"></polygon>
                <polygon id="Fill-6457" fill="#E2E4E5" points="5.945562 32.5 9.804942 32.5 10.079622 30 1.259622 30"></polygon>
                <path d="M16.38,15 C16.38,22.5 23.94,25 23.94,36.94375 L23.94,40 L31.5,40 L31.5,5 C23.94,5 16.38,7.5 16.38,15" id="Fill-6458" fill="#9E9FA1"></path>
            </g>
        </g>
    </g>
</svg>