<?xml version="1.0" encoding="UTF-8"?>
<svg width="110px" height="110px" viewBox="0 0 110 110" version="1.1" xmlns="http://www.w3.org/2000/svg" xmlns:xlink="http://www.w3.org/1999/xlink">
    <!-- Generator: Sketch 40.1 (33804) - http://www.bohemiancoding.com/sketch -->
    <title>icon-hotel copy</title>
    <desc>Created with Sketch.</desc>
    <defs></defs>
    <g id="Page-1" stroke="none" stroke-width="1" fill="none" fill-rule="evenodd">
        <g id="icon-hotel-copy">
            <path d="M110,55 C110,85.376 85.375,110 55,110 C24.625,110 0,85.376 0,55 C0,24.624 24.625,0 55,0 C85.375,0 110,24.624 110,55" id="Fill-407" fill="#25B7D3"></path>
            <g id="Group" transform="translate(23.000000, 31.000000)">
                <path d="M32.0015,0 C16.0015,0 4.0005,7 4.0005,7 L4.0005,20 L32.0015,20 L60.0005,20 L60.0005,7 C60.0005,7 48.0015,0 32.0015,0" id="Fill-6508" fill="#84462D"></path>
                <path d="M32,0 C16,0 4,7 4,7 L4,20 L32,20 L32,0 Z" id="Fill-6509" fill="#9C6144"></path>
                <polygon id="Fill-6510" fill="#E2E4E5" points="64 33 0 34 4 20 60 20"></polygon>
                <path d="M32.0015,23 C13.7155,23 0.0005,28.895 0.0005,28.895 L0.0005,38 L64.0005,38 L64.0005,28.895 C64.0005,28.895 50.2875,23 32.0015,23" id="Fill-6511" fill="#84462D"></path>
                <path d="M7.481,10.771 C7.451,10.616 7.482,10.455 7.568,10.323 C7.653,10.192 7.785,10.102 7.935,10.072 C15.128,8.643 21.342,8.643 28.535,10.072 C28.685,10.102 28.817,10.192 28.902,10.323 C28.987,10.455 29.019,10.616 28.989,10.771 C28.383,13.947 28.383,17.123 28.989,20.299 C29.019,20.455 28.987,20.615 28.902,20.747 C28.817,20.878 28.685,20.969 28.535,20.998 C21.342,22.427 15.128,22.427 7.935,20.998 C7.785,20.969 7.653,20.878 7.568,20.747 C7.482,20.615 7.451,20.455 7.481,20.299 C8.086,17.123 8.086,13.947 7.481,10.771" id="Fill-6512" fill="#FFFFFF"></path>
                <path d="M35.0107,10.771 C34.9817,10.616 35.0127,10.455 35.0977,10.323 C35.1827,10.192 35.3147,10.102 35.4647,10.072 C42.6587,8.643 48.8717,8.643 56.0657,10.072 C56.2147,10.102 56.3467,10.192 56.4317,10.323 C56.5177,10.455 56.5487,10.616 56.5187,10.771 C55.9137,13.947 55.9137,17.123 56.5187,20.299 C56.5487,20.455 56.5177,20.615 56.4317,20.747 C56.3467,20.878 56.2147,20.969 56.0657,20.998 C48.8717,22.427 42.6577,22.427 35.4647,20.998 C35.3147,20.969 35.1827,20.878 35.0977,20.747 C35.0127,20.615 34.9817,20.455 35.0107,20.299 C35.6167,17.123 35.6167,13.947 35.0107,10.771" id="Fill-6513" fill="#FFFFFF"></path>
                <path d="M0,42 L0,50.295 L0,54 C0,55.1 0.899,56 2,56 C3.1,56 4.333,55.165 4.742,54.143 L8,46 L56,46 L59.257,54.143 C59.666,55.165 60.9,56 62,56 C63.1,56 64,55.1 64,54 L64,42 L0,42 Z" id="Fill-6514" fill="#692E19"></path>
                <polygon id="Fill-6515" fill="#9C6144" points="64 42 0 42 0 38 64 38"></polygon>
                <path d="M32,23 C13.715,23 0,28.895 0,28.895 L0,38 L32,38 L32,23 Z" id="Fill-6516" fill="#9C6144"></path>
                <polygon id="Fill-6517" fill="#AF7653" points="32 38 0 38 0 42 32 42"></polygon>
                <path d="M32,42 L0,42 L0,50.295 L0,54 C0,55.1 0.899,56 2,56 C3.1,56 4.333,55.165 4.742,54.143 L8,46 L32,46 L32,42 Z" id="Fill-6518" fill="#84462D"></path>
            </g>
        </g>
    </g>
</svg>