<?xml version="1.0" encoding="UTF-8"?>
<svg width="118px" height="118px" viewBox="0 0 118 118" version="1.1" xmlns="http://www.w3.org/2000/svg" xmlns:xlink="http://www.w3.org/1999/xlink">
    <!-- Generator: Sketch 40.1 (33804) - http://www.bohemiancoding.com/sketch -->
    <title>Information</title>
    <desc>Created with Sketch.</desc>
    <defs></defs>
    <g id="Page-1" stroke="none" stroke-width="1" fill="none" fill-rule="evenodd">
        <g id="Information" transform="translate(4.000000, 4.000000)">
            <path d="M110,55 C110,85.376 85.376,110 55,110 C24.624,110 0,85.376 0,55 C0,24.624 24.624,0 55,0 C85.376,0 110,24.624 110,55" id="Fill-187" stroke="#FFFFFF" stroke-width="7" fill="#32BEA6"></path>
            <g id="Fill-2370-+-Fill-2371-+-Fill-2372" transform="translate(23.000000, 23.000000)">
                <path d="M32,0 C14.327,0 0,12.536 0,28 C0,34.304 2.382,40.12 6.4,44.8 L0,64 L20.051,53.975 C23.744,55.276 27.774,56 32,56 C49.673,56 64,43.464 64,28 C64,12.536 49.673,0 32,0" id="Fill-2370" fill="#F0F1F1"></path>
                <path d="M55.103,8.6372 C49.278,3.3182 41.084,0.0002 32,0.0002 C14.327,0.0002 0,12.5362 0,28.0002 C0,34.3042 2.382,40.1202 6.4,44.8002 L0.13,63.6102 L55.103,8.6372 Z" id="Fill-2371" fill="#FFFFFF"></path>
                <path d="M31.4681,16.6234 C28.8351,16.6234 26.6421,14.4314 26.6421,11.7974 C26.6421,9.1244 28.7401,6.9724 31.4681,6.9724 C34.1271,6.9724 36.2941,9.0594 36.2941,11.7974 C36.2941,14.4704 34.1971,16.6234 31.4681,16.6234 M34.4911,18.6384 C35.4801,18.6384 35.9751,19.3284 35.9751,20.7064 L35.9751,36.6694 C35.9751,38.4724 36.3111,39.3734 36.9831,39.3734 C37.2221,39.3734 38.2291,39.0024 38.6801,39.0024 C40.1651,39.0024 40.9071,39.9374 40.9071,41.8054 C40.9071,44.2854 39.8641,45.5254 37.7781,45.5254 C37.7211,45.5254 33.8171,45.1004 31.4151,45.1004 C29.7761,45.1004 27.4151,45.5254 25.8471,45.5254 C24.8921,45.5254 24.1141,45.1984 23.5131,44.5444 C22.9121,43.8904 22.6121,43.0504 22.6121,42.0254 C22.6121,40.0094 23.4601,39.0024 25.1571,39.0024 C25.4031,39.0594 26.6731,39.3734 26.9071,39.3734 C27.5441,39.3734 27.8621,38.3844 27.8621,36.4034 L27.8621,27.8134 C27.8621,25.7974 27.5611,24.7904 26.9601,24.7904 C26.9251,24.7904 25.8361,25.1614 25.1571,25.1614 C23.4601,25.1614 22.6121,24.1724 22.6121,22.1914 C22.6121,20.1234 23.8591,18.6384 25.9001,18.6384 C26.6181,18.6384 29.1221,19.0624 30.5661,19.0624 C31.6251,19.0624 34.4841,18.6384 34.4911,18.6384" id="Fill-2372" fill="#21B2D1"></path>
            </g>
        </g>
    </g>
</svg>