<?xml version="1.0" encoding="UTF-8"?>
<svg width="118px" height="118px" viewBox="0 0 118 118" version="1.1" xmlns="http://www.w3.org/2000/svg" xmlns:xlink="http://www.w3.org/1999/xlink">
    <!-- Generator: Sketch 40.1 (33804) - http://www.bohemiancoding.com/sketch -->
    <title>ion-pizza</title>
    <desc>Created with Sketch.</desc>
    <defs></defs>
    <g id="Page-1" stroke="none" stroke-width="1" fill="none" fill-rule="evenodd">
        <g id="ion-pizza" transform="translate(4.000000, 4.000000)">
            <path d="M110,55 C110,85.376 85.375,110 55,110 C24.625,110 0,85.376 0,55 C0,24.624 24.625,0 55,0 C85.375,0 110,24.624 110,55" id="Fill-123" stroke="#FFFFFF" stroke-width="7" fill="#25B7D3"></path>
            <g id="Group" transform="translate(23.000000, 23.000000)">
                <path d="M14,56 C14,56 17.778,45.61 11.564,38.599 C11.225,38.217 11.229,37.639 11.574,37.262 C13.719,34.917 17.528,34.967 23,45 C24.429,47.619 27.409,47.479 30,46 C34.928,43.187 42.04,34.226 49.5,36.408 C49.839,36.507 50.101,36.778 50.188,37.12 C50.275,37.462 50.175,37.825 49.925,38.075 L24,64 L14,56 Z" id="Fill-6500" fill="#FBC8C8"></path>
                <path d="M64,35 C64,35.552 63.552,36 63,36 L1,36 C0.448,36 0,35.552 0,35 L0,33 C0,32.448 0.448,32 1,32 L63,32 C63.552,32 64,32.448 64,33 L64,35 Z" id="Fill-6501" fill="#F0F1F1"></path>
                <path d="M32,4 C33.042,4 34.034,4.046 35,4.115 L35,1 C35,0.448 34.552,0 34,0 L30,0 C29.448,0 29,0.448 29,1 L29,4.115 C29.966,4.046 30.958,4 32,4" id="Fill-6502" fill="#FFFFFF"></path>
                <path d="M4,32 C4,32 3,4 32,4 C61,4 60,32 60,32 L4,32 Z" id="Fill-6503" fill="#E2E4E5"></path>
                <polygon id="Fill-6504" fill="#3E3E3F" points="14 56 4 64 24 64"></polygon>
                <path d="M32,4 C3,4 4,32 4,32 L32,32 L32,4 Z" id="Fill-6505" fill="#FFFFFF"></path>
                <path d="M14,56 C14,56 17.778,45.61 11.564,38.599 C11.225,38.217 11.229,37.639 11.574,37.262 C13.719,34.917 17.528,34.967 23,45 C24.429,47.619 27.409,47.479 30,46 C34.928,43.187 42.04,34.226 49.5,36.408 C49.839,36.507 50.101,36.778 50.188,37.12 C50.275,37.462 50.175,37.825 49.925,38.075 L24,64 L14,56 Z" id="Fill-6506" fill="#FBC8C8"></path>
                <path d="M49.9253,38.0747 C50.1753,37.8247 50.2753,37.4627 50.1883,37.1197 C50.1003,36.7777 49.8393,36.5067 49.5003,36.4077 C42.0393,34.2257 34.9283,43.1867 30.0003,45.9997 C27.4083,47.4787 24.4283,47.6187 23.0003,44.9997 C17.5283,34.9677 13.7183,34.9167 11.5743,37.2617 C11.2293,37.6387 11.2253,38.2167 11.5643,38.5987 C17.7783,45.6097 14.0003,55.9997 14.0003,55.9997 L16.7263,58.1817 L47.7023,40.2977 L49.9253,38.0747 Z" id="Fill-6507" fill="#F8B4B4"></path>
            </g>
        </g>
    </g>
</svg>