<?xml version="1.0" encoding="UTF-8"?>
<svg width="118px" height="118px" viewBox="0 0 118 118" version="1.1" xmlns="http://www.w3.org/2000/svg" xmlns:xlink="http://www.w3.org/1999/xlink">
    <!-- Generator: Sketch 40.1 (33804) - http://www.bohemiancoding.com/sketch -->
    <title>ion-model-s</title>
    <desc>Created with Sketch.</desc>
    <defs></defs>
    <g id="Page-1" stroke="none" stroke-width="1" fill="none" fill-rule="evenodd">
        <g id="ion-model-s" transform="translate(4.000000, 4.000000)">
            <path d="M110,55 C110,85.376 85.375,110 55,110 C24.625,110 0,85.376 0,55 C0,24.624 24.625,0 55,0 C85.375,0 110,24.624 110,55" id="Fill-1067" stroke="#FFFFFF" stroke-width="7" fill="#FABC3D"></path>
            <g id="Group" opacity="0.210088315" transform="translate(23.000000, 35.000000)">
                <path d="M60,16 L51,2.3 C50.34,0.89 48.93,0 47.38,0 L25.56,0 C24.05,0 22.66,0.86 21.98,2.21 L13.88,14 C13.48,14.81 12.81,15.46 12,15.84 C11.59,16.01 2.62,18.83 2.24,19 C1.07,19.55 1,21.11 1,22 C1,22.084 1.006,24.914 1.004,26.277 L1.005,26.277 C0.416,26.619 0,27.247 0,28 L0,32 C0,33.1 0.9,34 2,34 L14,34 L60,34 C62.21,34 64,32.21 64,30 L64,20 C64,17.79 62.21,16 60,16" id="Fill-4818" fill="#0484AB"></path>
                <path d="M25.5601,0 C24.0501,0 22.6601,0.86 21.9801,2.21 L13.8801,14 C13.4801,14.81 12.8101,15.46 12.0001,15.84 C11.5901,16.01 2.6201,18.83 2.2401,19 C1.0701,19.55 1.0001,21.11 1.0001,22 C1.0001,22.084 1.0061,24.914 1.0041,26.277 L1.0051,26.277 C0.4151,26.619 0.0001,27.247 0.0001,28 L0.0001,32 C0.0001,33.1 0.9001,34 2.0001,34 L2.9161,34 L36.9161,0 L25.5601,0 Z" id="Fill-4819" fill="#059BBF"></path>
                <path d="M57,33 C57,36.866 53.866,40 50,40 C46.134,40 43,36.866 43,33 C43,29.134 46.134,26 50,26 C53.866,26 57,29.134 57,33" id="Fill-4820" fill="#3E3E3F"></path>
                <path d="M53,33 C53,34.657 51.657,36 50,36 C48.343,36 47,34.657 47,33 C47,31.343 48.343,30 50,30 C51.657,30 53,31.343 53,33" id="Fill-4821" fill="#FFFFFF"></path>
                <path d="M64,26 L60,26 L60,23 C60,22.448 60.448,22 61,22 L64,22 L64,26 Z" id="Fill-4822" fill="#FBED9A"></path>
                <path d="M64,30 L61,30 C60.448,30 60,29.552 60,29 L60,26 L64,26 L64,30 Z" id="Fill-4823" fill="#F99134"></path>
                <path d="M1.0044,26.2773 C1.3014,26.1043 1.6414,26.0003 2.0004,26.0003 L10.0004,26.0003 L10.0004,24.0003 C10.0004,22.8953 9.1044,22.0003 8.0004,22.0003 L1.0004,22.0003 C1.0004,22.0843 1.0054,24.9143 1.0044,26.2773" id="Fill-4824" fill="#FBED9A"></path>
                <path d="M7,33 C7,29.134 10.134,26 14,26 L2,26 C0.933,26 0,26.867 0,28 L0,32 C0,33.1 0.9,34 2,34 L7.08,34 C7.033,33.673 7,33.34 7,33" id="Fill-4825" fill="#E2E4E5"></path>
                <path d="M21,33 C21,36.866 17.866,40 14,40 C10.134,40 7,36.866 7,33 C7,29.134 10.134,26 14,26 C17.866,26 21,29.134 21,33" id="Fill-4826" fill="#3E3E3F"></path>
                <path d="M17,33 C17,34.657 15.657,36 14,36 C12.343,36 11,34.657 11,33 C11,31.343 12.343,30 14,30 C15.657,30 17,31.343 17,33" id="Fill-4827" fill="#FFFFFF"></path>
                <path d="M8,22 L6,22 L6,26 L10,26 L10,24 C10,22.896 9.104,22 8,22" id="Fill-4828" fill="#F99134"></path>
                <polygon id="Fill-4829" fill="#21B2D1" points="34 23 28 23 28 21 34 21"></polygon>
                <path d="M54.7036,12.9517 L48.7916,3.9517 C48.4276,3.3607 47.7826,2.9997 47.0876,2.9997 L37.9996,2.9997 L37.9996,15.9997 L52.9996,15.9997 C53.7246,15.9997 54.3926,15.6077 54.7456,14.9757 C55.0996,14.3427 55.0826,13.5687 54.7036,12.9517" id="Fill-4830" fill="#40C9E7"></path>
                <path d="M34,3 L25.566,3 C24.83,3 24.154,3.404 23.805,4.052 L18.239,13.052 C17.905,13.672 17.922,14.421 18.283,15.026 C18.644,15.63 19.296,16 20,16 L34,16 L34,3 Z" id="Fill-4831" fill="#40C9E7"></path>
                <path d="M25.5659,3 C24.8299,3 24.1539,3.404 23.8049,4.052 L18.2389,13.052 C17.9049,13.672 17.9219,14.421 18.2829,15.025 C18.6439,15.63 19.2959,16 19.9999,16 L20.9169,16 L33.9169,3 L25.5659,3 Z" id="Fill-4832" fill="#6FDAF1"></path>
            </g>
            <path d="M37,26 L37,80.2168675 L46.1394148,80.2168675 L46.1394148,63.8743546 L58.6092943,63.8743546 C72.2409639,63.8743546 80.0636833,56.7487091 80.0636833,44.5111876 C80.0636833,32.7383821 72.2409639,26 58.6092943,26 L37,26 Z M46.1394148,34.2099828 L58.222031,34.2099828 C66.5869191,34.2099828 71.3115318,37.6179002 71.3115318,44.7435456 C71.3115318,52.1015491 66.5869191,55.6643718 58.222031,55.6643718 L46.1394148,55.6643718 L46.1394148,34.2099828 Z" id="P" fill="#FFFFFF"></path>
        </g>
    </g>
</svg>