<?xml version="1.0" encoding="UTF-8"?>
<svg width="118px" height="118px" viewBox="0 0 118 118" version="1.1" xmlns="http://www.w3.org/2000/svg" xmlns:xlink="http://www.w3.org/1999/xlink">
    <!-- Generator: Sketch 40.1 (33804) - http://www.bohemiancoding.com/sketch -->
    <title>ion-android-restaurant</title>
    <desc>Created with Sketch.</desc>
    <defs></defs>
    <g id="Page-1" stroke="none" stroke-width="1" fill="none" fill-rule="evenodd">
        <g id="ion-android-restaurant" transform="translate(4.000000, 4.000000)">
            <path d="M110,55 C110,85.376 85.376,110 55,110 C24.624,110 0,85.376 0,55 C0,24.624 24.624,0 55,0 C85.376,0 110,24.624 110,55" id="Fill-833" stroke="#FFFFFF" stroke-width="7" fill="#E04F5F"></path>
            <g id="Group" transform="translate(23.000000, 31.000000)">
                <path d="M32,12 C29.791,12 28,10.209 28,8 C28,5.791 29.791,4 32,4 C34.209,4 36,5.791 36,8 C36,10.209 34.209,12 32,12 L32,12 Z M60,40.5 C60,27.131 50.627,15.957 38.096,13.173 C39.281,11.778 40,9.974 40,8 C40,3.582 36.418,0 32,0 C27.582,0 24,3.582 24,8 C24,9.974 24.719,11.778 25.904,13.173 C13.373,15.957 4,27.131 4,40.5 L4,44 L60,44 L60,40.5 Z" id="Fill-6343" fill="#F0F1F1"></path>
                <path d="M32,12 C29.791,12 28,10.209 28,8 C28,5.791 29.791,4 32,4 L32,0 C27.582,0 24,3.582 24,8 C24,9.974 24.719,11.778 25.904,13.173 C13.373,15.957 4,27.131 4,40.5 L4,44 L32,44 L32,12 Z" id="Fill-6344" fill="#FFFFFF"></path>
                <path d="M64,48 C64,50.209 62.209,52 60,52 L4,52 C1.791,52 0,50.209 0,48 C0,45.791 1.791,44 4,44 L60,44 C62.209,44 64,45.791 64,48" id="Fill-6345" fill="#84462D"></path>
                <path d="M32,44 L4,44 C1.791,44 0,45.791 0,48 C0,50.209 1.791,52 4,52 L32,52 L32,44 Z" id="Fill-6346" fill="#9C6144"></path>
            </g>
        </g>
    </g>
</svg>