<?xml version="1.0" encoding="UTF-8"?>
<svg width="118px" height="118px" viewBox="0 0 118 118" version="1.1" xmlns="http://www.w3.org/2000/svg" xmlns:xlink="http://www.w3.org/1999/xlink">
    <!-- Generator: Sketch 40.1 (33804) - http://www.bohemiancoding.com/sketch -->
    <title>ion-flag</title>
    <desc>Created with Sketch.</desc>
    <defs></defs>
    <g id="Page-1" stroke="none" stroke-width="1" fill="none" fill-rule="evenodd">
        <g id="ion-flag" transform="translate(4.000000, 4.000000)">
            <path d="M110,55 C110,85.376 85.376,110 55,110 C24.624,110 0,85.376 0,55 C0,24.624 24.624,0 55,0 C85.376,0 110,24.624 110,55" id="Fill-537" stroke="#FFFFFF" stroke-width="7" fill="#FABC3D"></path>
            <g id="Group" transform="translate(23.000000, 35.000000)">
                <path d="M64,46 C64,47.104 63.104,48 62,48 L2,48 C0.896,48 0,47.104 0,46 L0,6 C0,4.896 0.896,4 2,4 L24,4 L24,2 C24,0.896 24.896,0 26,0 L62,0 C63.104,0 64,0.896 64,2 L64,46 Z" id="Fill-2010" fill="#F0F1F1"></path>
                <path d="M26,0 C24.896,0 24,0.896 24,2 L24,4 L2,4 C0.896,4 0,4.896 0,6 L0,46 C0,46.315 0.079,46.609 0.209,46.874 L47.083,0 L26,0 Z" id="Fill-2011" fill="#FFFFFF"></path>
                <path d="M18,4 L4,4 L4,1 C4,0.448 4.448,0 5,0 L17,0 C17.552,0 18,0.448 18,1 L18,4 Z" id="Fill-2012" fill="#FFFFFF"></path>
                <path d="M60,11 C60,11.552 59.552,12 59,12 L49,12 C48.448,12 48,11.552 48,11 L48,5 C48,4.448 48.448,4 49,4 L59,4 C59.552,4 60,4.448 60,5 L60,11 Z" id="Fill-2013" fill="#40C9E7"></path>
                <path d="M12,10 C12,11.104 11.104,12 10,12 C8.896,12 8,11.104 8,10 C8,8.896 8.896,8 10,8 C11.104,8 12,8.896 12,10" id="Fill-2014" fill="#5B5C5F"></path>
                <polygon id="Fill-2015" fill="#E2E4E5" points="8 4 6 4 6 0 8 0"></polygon>
                <polygon id="Fill-2016" fill="#E2E4E5" points="12 4 10 4 10 0 12 0"></polygon>
                <polygon id="Fill-2017" fill="#E2E4E5" points="16 4 14 4 14 0 16 0"></polygon>
                <polygon id="Fill-2018" fill="#3E3E3F" points="64 44 0 44 0 16 64 16"></polygon>
                <polygon id="Fill-2019" fill="#5B5C5F" points="0 16 0 44 3.083 44 31.083 16"></polygon>
                <path d="M52,28 C52,36.837 44.837,44 36,44 C27.163,44 20,36.837 20,28 C20,19.163 27.163,12 36,12 C44.837,12 52,19.163 52,28" id="Fill-2020" fill="#FFFFFF"></path>
                <path d="M48,28 C48,34.627 42.627,40 36,40 C29.373,40 24,34.627 24,28 C24,21.373 29.373,16 36,16 C42.627,16 48,21.373 48,28" id="Fill-2021" fill="#21B2D1"></path>
                <path d="M36,16 C29.373,16 24,21.373 24,28 C24,31.338 25.365,34.355 27.564,36.531 L44.531,19.564 C42.355,17.365 39.338,16 36,16" id="Fill-2022" fill="#40C9E7"></path>
                <path d="M16,34 C16,35.104 15.104,36 14,36 C12.896,36 12,35.104 12,34 L12,30 C12,28.896 12.896,28 14,28 C15.104,28 16,28.896 16,30 L16,34 Z" id="Fill-2023" fill="#818284"></path>
            </g>
        </g>
    </g>
</svg>