<?xml version="1.0" encoding="UTF-8"?>
<svg width="118px" height="118px" viewBox="0 0 118 118" version="1.1" xmlns="http://www.w3.org/2000/svg" xmlns:xlink="http://www.w3.org/1999/xlink">
    <!-- Generator: Sketch 40.1 (33804) - http://www.bohemiancoding.com/sketch -->
    <title>Lab</title>
    <desc>Created with Sketch.</desc>
    <defs></defs>
    <g id="Page-1" stroke="none" stroke-width="1" fill="none" fill-rule="evenodd">
        <g id="Lab" transform="translate(4.000000, 4.000000)">
            <path d="M110,55 C110,85.376 85.376,110 55,110 C24.624,110 0,85.376 0,55 C0,24.624 24.624,0 55,0 C85.376,0 110,24.624 110,55" id="Fill-445" stroke="#FFFFFF" stroke-width="7" fill="#FABC3D"></path>
            <g id="Fill-2456-+-Fill-2457-+-Fill-2458" transform="translate(33.000000, 23.000000)">
                <path d="M44,44 C44,56.15 34.15,64 22,64 C9.85,64 0,56.15 0,44 C0,30.294 12,28 22,0.16 C32,28 44,30.408 44,44" id="Fill-2456" fill="#DF2C2C"></path>
                <path d="M0,43.8398 C0,55.9898 9.85,63.8398 22,63.8398 L22,-0.0002 C12,27.8398 0,30.1338 0,43.8398" id="Fill-2457" fill="#FA5655"></path>
                <path d="M34,41 C34,40.448 33.552,40 33,40 L26,40 L26,33 C26,32.448 25.552,32 25,32 L19,32 C18.448,32 18,32.448 18,33 L18,40 L11,40 C10.448,40 10,40.448 10,41 L10,47 C10,47.552 10.448,48 11,48 L18,48 L18,55 C18,55.552 18.448,56 19,56 L25,56 C25.552,56 26,55.552 26,55 L26,48 L33,48 C33.552,48 34,47.552 34,47 L34,41 Z" id="Fill-2458" fill="#FFFFFF"></path>
            </g>
        </g>
    </g>
</svg>