<?xml version="1.0" encoding="UTF-8"?>
<svg width="118px" height="118px" viewBox="0 0 118 118" version="1.1" xmlns="http://www.w3.org/2000/svg" xmlns:xlink="http://www.w3.org/1999/xlink">
    <!-- Generator: Sketch 40.2 (33826) - http://www.bohemiancoding.com/sketch -->
    <title>Pharmacy</title>
    <desc>Created with Sketch.</desc>
    <defs></defs>
    <g id="Order" stroke="none" stroke-width="1" fill="none" fill-rule="evenodd">
        <g id="Pharmacy" transform="translate(4.000000, 4.000000)">
            <path d="M110,55 C110,85.376 85.376,110 55,110 C24.624,110 0,85.376 0,55 C0,24.625 24.624,0 55,0 C85.376,0 110,24.625 110,55" id="Fill-411" stroke="#FFFFFF" stroke-width="7" fill="#25B7D3"></path>
            <g id="Group" transform="translate(23.000000, 25.000000)">
                <path d="M43.1479,26 L58.0269,5.74 C59.1119,4.281 58.9589,2.245 57.6679,0.964 L57.6229,0.918 C56.3309,-0.363 54.2939,-0.499 52.8439,0.598 L19.9829,26 L43.1479,26 Z" id="Fill-2459" fill="#FFFFFF"></path>
                <path d="M64,34 C64,36.209 62.209,38 60,38 L4,38 C1.791,38 0,36.209 0,34 L0,30 C0,27.791 1.791,26 4,26 L60,26 C62.209,26 64,27.791 64,30 L64,34 Z" id="Fill-2460" fill="#E2E4E5"></path>
                <path d="M4,38 C4,44.667 8,50 16,54 L12.586,57.414 C12.211,57.789 12,58.298 12,58.828 L12,60 C12,61.104 12.895,62 14,62 L50,62 C51.105,62 52,61.104 52,60 L52,58.828 C52,58.298 51.789,57.789 51.414,57.414 L48,54 C56,50 60,44.667 60,38 L4,38 Z" id="Fill-2461" fill="#F0F1F1"></path>
                <path d="M32,26 L32,38 L4,38 C1.79,38 0,36.21 0,34 L0,30 C0,27.79 1.79,26 4,26 L32,26 Z" id="Fill-2462" fill="#F0F1F1"></path>
                <path d="M32,38 L32,62 L14,62 C12.9,62 12,61.1 12,60 L12,58.83 C12,58.3 12.21,57.79 12.59,57.41 L16,54 C8,50 4,44.67 4,38 L32,38 Z" id="Fill-2463" fill="#FFFFFF"></path>
            </g>
        </g>
    </g>
</svg>