<?xml version="1.0" encoding="UTF-8"?>
<svg width="118px" height="118px" viewBox="0 0 118 118" version="1.1" xmlns="http://www.w3.org/2000/svg" xmlns:xlink="http://www.w3.org/1999/xlink">
    <!-- Generator: Sketch 40.2 (33826) - http://www.bohemiancoding.com/sketch -->
    <title>RealEstate</title>
    <desc>Created with Sketch.</desc>
    <defs></defs>
    <g id="Page-1" stroke="none" stroke-width="1" fill="none" fill-rule="evenodd">
        <g id="RealEstate" transform="translate(4.000000, 4.000000)">
            <path d="M110,55 C110,85.376 85.375,110 55,110 C24.625,110 0,85.376 0,55 C0,24.624 24.625,0 55,0 C85.375,0 110,24.624 110,55" id="Fill-465" stroke="#FFFFFF" stroke-width="7" fill="#25B7D3"></path>
            <g transform="translate(23.000000, 23.000000)">
                <polygon id="Fill-2263" fill="#FFFFFF" points="60 60 4 60 4 24 60 24"></polygon>
                <path d="M56,6 C56,4.895 55.104,4 54,4 L50,4 C48.896,4 48,4.895 48,6 L48,18 C48,19.105 48.896,20 50,20 L54,20 C55.104,20 56,19.105 56,18 L56,6 Z" id="Fill-2264" fill="#E2E4E5"></path>
                <path d="M33.228,0.4213 C32.506,-0.1407 31.495,-0.1407 30.772,0.4213 L0.772,20.4213 C0.098,20.9463 -0.169,21.8413 0.108,22.6493 C0.386,23.4573 1.145,24.0003 2,24.0003 L62,24.0003 C62.854,24.0003 63.614,23.4573 63.892,22.6493 C64.169,21.8413 63.902,20.9463 63.228,20.4213 L33.228,0.4213 Z" id="Fill-2265" fill="#DF2C2C"></path>
                <polygon id="Fill-2266" fill="#40C9E7" points="56 47.125 35 47.125 35 32 56 32"></polygon>
                <path d="M26,40 C26,35.582 22.418,32 18,32 C13.582,32 10,35.582 10,40 L10,56 L26,56 L26,40 Z" id="Fill-2267" fill="#84462D"></path>
                <path d="M24,46 C24,47.105 23.104,48 22,48 C20.896,48 20,47.105 20,46 C20,44.895 20.896,44 22,44 C23.104,44 24,44.895 24,46" id="Fill-2268" fill="#FACB1B"></path>
                <polygon id="Fill-2269" fill="#0D9681" points="64 64 0 64 0 60 64 60"></polygon>
                <path d="M0,60 L3.121,56.879 C3.684,56.316 4.447,56 5.243,56 L58.757,56 C59.553,56 60.316,56.316 60.879,56.879 L64,60 L0,60 Z" id="Fill-2270" fill="#17B198"></path>
            </g>
        </g>
    </g>
</svg>