<?xml version="1.0" encoding="UTF-8"?>
<svg width="151px" height="151px" viewBox="0 0 151 151" version="1.1" xmlns="http://www.w3.org/2000/svg" xmlns:xlink="http://www.w3.org/1999/xlink">
    <!-- Generator: Sketch 40.2 (33826) - http://www.bohemiancoding.com/sketch -->
    <title>teemIcon2</title>
    <desc>Created with Sketch.</desc>
    <defs>
        <filter x="-50%" y="-50%" width="200%" height="200%" filterUnits="objectBoundingBox" id="filter-1">
            <feOffset dx="0" dy="2" in="SourceAlpha" result="shadowOffsetOuter1"></feOffset>
            <feGaussianBlur stdDeviation="2" in="shadowOffsetOuter1" result="shadowBlurOuter1"></feGaussianBlur>
            <feColorMatrix values="0 0 0 0 0   0 0 0 0 0   0 0 0 0 0  0 0 0 0.5 0" type="matrix" in="shadowBlurOuter1" result="shadowMatrixOuter1"></feColorMatrix>
            <feMerge>
                <feMergeNode in="shadowMatrixOuter1"></feMergeNode>
                <feMergeNode in="SourceGraphic"></feMergeNode>
            </feMerge>
        </filter>
        <path d="M101.037849,70.9581099 C101.037849,87.483936 87.6420354,100.880638 71.1162093,100.880638 C54.5903832,100.880638 41.1927932,87.483936 41.1927932,70.9581099 C41.1927932,54.433172 54.5903832,41.0364702 71.1162093,41.0364702 C87.6420354,41.0364702 101.037849,54.433172 101.037849,70.9581099" id="path-2"></path>
        <filter x="-50%" y="-50%" width="200%" height="200%" filterUnits="objectBoundingBox" id="filter-3">
            <feOffset dx="0" dy="2" in="SourceAlpha" result="shadowOffsetOuter1"></feOffset>
            <feGaussianBlur stdDeviation="2" in="shadowOffsetOuter1" result="shadowBlurOuter1"></feGaussianBlur>
            <feColorMatrix values="0 0 0 0 0   0 0 0 0 0   0 0 0 0 0  0 0 0 0.5 0" type="matrix" in="shadowBlurOuter1"></feColorMatrix>
        </filter>
    </defs>
    <g id="Page-1" stroke="none" stroke-width="1" fill="none" fill-rule="evenodd">
        <g id="teemIcon2" transform="translate(4.000000, 2.000000)">
            <g id="Page-1">
                <g id="Group" filter="url(#filter-1)">
                    <path d="M71.1157652,0.000177639752 L71.1157652,71.1155876 L0.000355279503,71.1155876 C0.000355279503,31.8412149 31.8405043,0.000177639752 71.1157652,0.000177639752" id="Fill-1" fill="#E04F5F"></path>
                    <path d="M142.23153,71.1159429 L71.1161205,71.1159429 L71.1161205,0.000532919255 C110.391381,0.000532919255 142.23153,31.840682 142.23153,71.1159429" id="Fill-3" fill="#FABC3D"></path>
                    <path d="M142.23153,71.1159429 C142.23153,110.391204 110.391381,142.231353 71.1161205,142.231353 L71.1161205,71.1159429 L142.23153,71.1159429 Z" id="Fill-5" fill="#32BEA6"></path>
                </g>
                <g id="Fill-7">
                    <use fill="black" fill-opacity="1" filter="url(#filter-3)" xlink:href="#path-2"></use>
                    <use fill="#FFFFFF" fill-rule="evenodd" xlink:href="#path-2"></use>
                </g>
            </g>
        </g>
    </g>
</svg>